[
  {"key": 0, "nb": "6", "latitude": 47.228626, "longitude": -1.561806},
  {"key": 1, "nb": "7", "latitude": 47.208805, "longitude": -1.550412},
  {"key": 2, "nb": "5", "latitude": 47.220392, "longitude": -1.555531},
  {"key": 3, "nb": "11", "latitude": 47.208444, "longitude": -1.540514},
  {"key": 4, "nb": "5", "latitude": 47.2167, "longitude": -1.547253},
  {"key": 5, "nb": "6", "latitude": 47.228614, "longitude": -1.533329},
  {"key": 6, "nb": "7", "latitude": 47.221143, "longitude": -1.556476},
  {"key": 7, "nb": "6", "latitude": 47.189212, "longitude": -1.550828},
  {"key": 8, "nb": "22", "latitude": 47.209407, "longitude": -1.555233},
  {"key": 9, "nb": "7", "latitude": 47.199923, "longitude": -1.534718},
  {"key": 10, "nb": "9", "latitude": 47.202127, "longitude": -1.5787},
  {"key": 11, "nb": "14", "latitude": 47.227775, "longitude": -1.552148},
  {"key": 12, "nb": "10", "latitude": 47.233028, "longitude": -1.566059},
  {"key": 13, "nb": "6", "latitude": 47.197217, "longitude": -1.532105},
  {"key": 14, "nb": "14", "latitude": 47.215158, "longitude": -1.563901},
  {"key": 15, "nb": "10", "latitude": 47.219028, "longitude": -1.563419},
  {"key": 16, "nb": "21", "latitude": 47.207606, "longitude": -1.557532},
  {"key": 17, "nb": "9", "latitude": 47.206598, "longitude": -1.57261},
  {"key": 18, "nb": "8", "latitude": 47.229088, "longitude": -1.540293},
  {"key": 19, "nb": "7", "latitude": 47.213121, "longitude": -1.557393},
  {"key": 20, "nb": "4", "latitude": 47.204784, "longitude": -1.558923},
  {"key": 21, "nb": "7", "latitude": 47.205324, "longitude": -1.555183},
  {"key": 22, "nb": "8", "latitude": 47.215591, "longitude": -1.545906},
  {"key": 23, "nb": "2", "latitude": 47.199408, "longitude": -1.573184},
  {"key": 24, "nb": "34", "latitude": 47.216207, "longitude": -1.533796},
  {"key": 25, "nb": "6", "latitude": 47.215579, "longitude": -1.560675},
  {"key": 26, "nb": "6", "latitude": 47.188684, "longitude": -1.567201},
  {"key": 27, "nb": "5", "latitude": 47.22865, "longitude": -1.526193},
  {"key": 28, "nb": "6", "latitude": 47.208905, "longitude": -1.56823},
  {"key": 29, "nb": "7", "latitude": 47.184491, "longitude": -1.562532},
  {"key": 30, "nb": "6", "latitude": 47.224068, "longitude": -1.545212},
  {"key": 31, "nb": "10", "latitude": 47.219216, "longitude": -1.535847},
  {"key": 32, "nb": "8", "latitude": 47.223605, "longitude": -1.571374},
  {"key": 33, "nb": "9", "latitude": 47.2082, "longitude": -1.53018},
  {"key": 34, "nb": "9", "latitude": 47.22543, "longitude": -1.548},
  {"key": 35, "nb": "10", "latitude": 47.19426, "longitude": -1.529313},
  {"key": 36, "nb": "6", "latitude": 47.223509, "longitude": -1.52996},
  {"key": 37, "nb": "7", "latitude": 47.227145, "longitude": -1.542405},
  {"key": 38, "nb": "9", "latitude": 47.213859, "longitude": -1.586108},
  {"key": 39, "nb": "6", "latitude": 47.219834, "longitude": -1.544719},
  {"key": 40, "nb": "12", "latitude": 47.219901, "longitude": -1.532947},
  {"key": 41, "nb": "3", "latitude": 47.213523, "longitude": -1.563141},
  {"key": 42, "nb": "4", "latitude": 47.208465, "longitude": -1.536657},
  {"key": 43, "nb": "9", "latitude": 47.243264, "longitude": -1.556345},
  {"key": 44, "nb": "10", "latitude": 47.230334, "longitude": -1.556133},
  {"key": 45, "nb": "4", "latitude": 47.202084, "longitude": -1.554154},
  {"key": 46, "nb": "9", "latitude": 47.235335, "longitude": -1.549222},
  {"key": 47, "nb": "9", "latitude": 47.210781, "longitude": -1.544298},
  {"key": 48, "nb": "6", "latitude": 47.217505, "longitude": -1.55185},
  {"key": 49, "nb": "7", "latitude": 47.202547, "longitude": -1.572325},
  {"key": 50, "nb": "8", "latitude": 47.219248, "longitude": -1.550185},
  {"key": 51, "nb": "5", "latitude": 47.214463, "longitude": -1.567568},
  {"key": 52, "nb": "10", "latitude": 47.216788, "longitude": -1.559161},
  {"key": 53, "nb": "9", "latitude": 47.20656, "longitude": -1.58785},
  {"key": 54, "nb": "13", "latitude": 47.234853, "longitude": -1.534981},
  {"key": 55, "nb": "14", "latitude": 47.219009, "longitude": -1.544071},
  {"key": 56, "nb": "7", "latitude": 47.218837, "longitude": -1.556749},
  {"key": 57, "nb": "7", "latitude": 47.198124, "longitude": -1.588395},
  {"key": 58, "nb": "7", "latitude": 47.219214, "longitude": -1.56157},
  {"key": 59, "nb": "4", "latitude": 47.211501, "longitude": -1.577175},
  {"key": 60, "nb": "5", "latitude": 47.221785, "longitude": -1.547099},
  {"key": 61, "nb": "7", "latitude": 47.221854, "longitude": -1.558941},
  {"key": 62, "nb": "15", "latitude": 47.210742, "longitude": -1.525933},
  {"key": 63, "nb": "9", "latitude": 47.206799, "longitude": -1.541778},
  {"key": 64, "nb": "6", "latitude": 47.215815, "longitude": -1.559017},
  {"key": 65, "nb": "12", "latitude": 47.212083, "longitude": -1.559087},
  {"key": 66, "nb": "6", "latitude": 47.219854, "longitude": -1.558921},
  {"key": 67, "nb": "8", "latitude": 47.21793, "longitude": -1.569172},
  {"key": 68, "nb": "8", "latitude": 47.226394, "longitude": -1.560023},
  {"key": 69, "nb": "3", "latitude": 47.222587, "longitude": -1.551666},
  {"key": 70, "nb": "15", "latitude": 47.212108, "longitude": -1.553049},
  {"key": 71, "nb": "19", "latitude": 47.206919, "longitude": -1.564807},
  {"key": 72, "nb": "6", "latitude": 47.214195, "longitude": -1.529736},
  {"key": 73, "nb": "9", "latitude": 47.225471, "longitude": -1.567502},
  {"key": 74, "nb": "2", "latitude": 47.224515, "longitude": -1.553712},
  {"key": 75, "nb": "9", "latitude": 47.21648, "longitude": -1.551541},
  {"key": 76, "nb": "6", "latitude": 47.211736, "longitude": -1.549886},
  {"key": 77, "nb": "9", "latitude": 47.224195, "longitude": -1.576613},
  {"key": 78, "nb": "20", "latitude": 47.211465, "longitude": -1.556825},
  {"key": 79, "nb": "16", "latitude": 47.215505, "longitude": -1.542844},
  {"key": 80, "nb": "4", "latitude": 47.216668, "longitude": -1.554385},
  {"key": 81, "nb": "20", "latitude": 47.21318, "longitude": -1.544953},
  {"key": 82, "nb": "0", "latitude": 47.195299, "longitude": -1.557559},
  {"key": 83, "nb": "7", "latitude": 47.207439, "longitude": -1.578689},
  {"key": 84, "nb": "0", "latitude": 47.19316, "longitude": -1.549212},
  {"key": 85, "nb": "8", "latitude": 47.205396, "longitude": -1.537582},
  {"key": 86, "nb": "6", "latitude": 47.210549, "longitude": -1.567368},
  {"key": 87, "nb": "8", "latitude": 47.191117, "longitude": -1.569362},
  {"key": 88, "nb": "5", "latitude": 47.209429, "longitude": -1.570515},
  {"key": 89, "nb": "5", "latitude": 47.204003, "longitude": -1.551548},
  {"key": 90, "nb": "6", "latitude": 47.214328, "longitude": -1.548751},
  {"key": 91, "nb": "12", "latitude": 47.225957, "longitude": -1.522334},
  {"key": 92, "nb": "26", "latitude": 47.208317, "longitude": -1.561173},
  {"key": 93, "nb": "11", "latitude": 47.218103, "longitude": -1.541751},
  {"key": 94, "nb": "11", "latitude": 47.220255, "longitude": -1.554084},
  {"key": 95, "nb": "3", "latitude": 47.195899, "longitude": -1.536541},
  {"key": 96, "nb": "8", "latitude": 47.216828, "longitude": -1.567005},
  {"key": 97, "nb": "12", "latitude": 47.195308, "longitude": -1.581806},
  {"key": 98, "nb": "7", "latitude": 47.21515, "longitude": -1.550226},
  {"key": 99, "nb": "7", "latitude": 47.212169, "longitude": -1.565544}
]
